projeto_single/processador.vcd
$date
	Wed Sep 24 21:56:52 2025
$end
$version
	ModelSim Version 10.5b
$end
$timescale
	1ps
$end

$scope module tb_processador $end
$var reg 1 ! clock $end
$var reg 1 " reset $end
$var reg 16 # last_pc [15:0] $end
$var reg 2 $ last_state [1:0] $end

$scope module mem_inst $end
$var parameter 32 % ADDR_WIDTH $end
$var parameter 32 & DATA_WIDTH $end
$var parameter 32 ' DEPTH $end
$var wire 1 ( clk $end
$upscope $end

$scope module cpu $end
$var wire 1 ) clock $end
$var wire 1 * reset $end
$var reg 16 + instrucao_atual [15:0] $end
$var reg 4 , opcode [3:0] $end
$var reg 4 - rd [3:0] $end
$var reg 4 . rs1 [3:0] $end
$var reg 4 / rs2 [3:0] $end
$var reg 32 0 operand_a [31:0] $end
$var reg 32 1 operand_b [31:0] $end
$var reg 32 2 resultado [31:0] $end
$var reg 16 3 PC [15:0] $end
$var reg 2 4 cycle_counter [1:0] $end
$var reg 2 5 current_state [1:0] $end

$scope module rb_inst $end
$var parameter 32 6 REG_WIDTH $end
$var parameter 32 7 REG_COUNT $end
$var wire 1 ) clk $end
$var wire 1 8 rst_n $end
$upscope $end

$scope module alu_inst $end
$var parameter 4 9 OP_ADD $end
$var parameter 4 : OP_SUB $end
$var parameter 4 ; OP_AND $end
$var parameter 4 < OP_OR $end
$var parameter 4 = OP_XOR $end
$var parameter 4 > OP_NOT $end
$var parameter 4 ? OP_SHL $end
$var parameter 4 @ OP_SHR $end
$var parameter 4 A OP_SAR $end
$var wire 1 ) clock $end
$var wire 1 * reset $end
$var reg 32 B operand_a [31:0] $end
$var reg 32 C operand_b [31:0] $end
$var reg 4 D opcode [3:0] $end
$var reg 32 E result [31:0] $end
$var reg 32 F alu_result [31:0] $end
$var reg 1 G zero $end
$var reg 1 H carry $end
$var reg 1 I overflow $end
$var reg 3 J current_state [2:0] $end
$var reg 3 K next_state [2:0] $end
$var reg 6 L bit_counter [5:0] $end
$var reg 32 M spi_shift_reg [31:0] $end
$var reg 33 N add_sub [32:0] $end
$var reg 32 O logic_out [31:0] $end
$var reg 1 P add_carry $end
$var reg 1 Q sub_carry $end
$var reg 1 R add_overflow $end
$var reg 1 S sub_overflow $end
$upscope $end

$scope module mul_inst $end
$var parameter 4 T OP_MUL $end
$var wire 1 ) clock $end
$var wire 1 * reset $end
$var reg 32 U operand_a [31:0] $end
$var reg 32 V operand_b [31:0] $end
$var reg 4 W opcode [3:0] $end
$var reg 64 X mul_result_full [63:0] $end
$var reg 32 Y result [31:0] $end
$var reg 3 Z current_state [2:0] $end
$var reg 3 [ next_state [2:0] $end
$var reg 6 \ bit_counter [5:0] $end
$var reg 32 ] spi_shift_reg [31:0] $end
$upscope $end

$scope module bas_inst $end
$var parameter 32 ^ REG_WIDTH $end
$var parameter 4 _ OP_SHL $end
$var parameter 4 ` OP_SHR $end
$var parameter 4 a OP_SAR $end
$var wire 1 ) clock $end
$var wire 1 * reset $end
$var reg 32 b operand_a [31:0] $end
$var reg 32 c operand_b [31:0] $end
$var reg 4 d opcode [3:0] $end
$var reg 32 e result [31:0] $end
$var reg 32 f shift_result [31:0] $end
$var reg 3 g current_state [2:0] $end
$var reg 3 h next_state [2:0] $end
$var reg 6 i bit_counter [5:0] $end
$var reg 32 j spi_shift_reg [31:0] $end
$var reg 1 k operation_done $end
$upscope $end
$upscope $end
$upscope $end
$enddefinitions $end
#0
$dumpvars
0!
1"
b0 B
b0 C
b0 D
b0 E
b0 F
1G
0H
0I
b0 J
b0x K
b0 L
b0 M
b0 N
b0 O
0P
0Q
0R
0S
b0 U
b0 V
b0 W
b0 X
b0 Y
b0 Z
b0x [
b0 \
b0 ]
b0 b
b0 c
b0 d
b0 e
b0 f
b0 g
b0 h
b0 i
b0 j
0k
b0 +
bx ,
bx -
bx .
bx /
b0 0
b0 1
b0 2
b0 3
b0 4
b0 5
b1111111111111111 #
b11 $
b1000 %
b100000 &
b100000000 '
b100000 6
b10000 7
b0 9
b1 :
b10 ;
b11 <
b100 =
b101 >
b110 ?
b111 @
b1000 A
b1001 T
b100000 ^
b110 _
b111 `
b1000 a
0(
0)
1*
08
$end
#5
1!
1)
1(
#10
0!
0)
0(
#15
1!
1)
1(
#20
0!
0)
0(
#25
1!
1)
1(
#30
0!
0)
0(
#35
1!
1)
1(
#40
0!
0)
0(
#45
1!
1)
1(
#50
0!
0)
0(
#55
1!
1)
1(
#60
0!
0)
0(
#65
1!
1)
1(
#70
0!
0)
0(
#75
1!
1)
1(
#80
0!
0)
0(
#85
1!
1)
1(
#90
0!
0)
0(
#95
1!
1)
1(
#100
0!
0)
0(
#105
1!
1)
1(
#110
0!
0)
0(
#115
1!
1)
1(
#120
0!
0)
0(
#125
1!
1)
1(
#130
0!
0)
0(
#135
1!
1)
1(
0"
0*
18
#140
0!
0)
0(
#145
1!
1)
1(
b0 #
b0 $
b0x J
b0x Z
b1 4
b0 [
b0 K
#150
0!
0)
0(
#155
1!
1)
1(
b0 J
b0 Z
b1 5
b10 4
b0x [
b0x K
#160
0!
0)
0(
#165
1!
1)
1(
b1 $
b0x J
b0x Z
b10 5
b11 4
bx +
b0 [
b0 K
#170
0!
0)
0(
#175
1!
1)
1(
b10 $
b0 J
b0 Z
b11 5
b0 4
bx 0
bx 1
b0x [
b0x K
#180
0!
0)
0(
#185
1!
1)
1(
b11 $
b0x J
b0x Z
b0 5
b1 4
b1 3
b0 [
b0 K
#190
0!
0)
0(
#195
1!
1)
1(
b1 #
b0 $
b0 J
b0 Z
b1 5
b10 4
b0x [
b0x K
#200
0!
0)
0(
#205
1!
1)
1(
b1 $
b0x J
b0x Z
b10 5
b11 4
b0 [
b0 K
#210
0!
0)
0(
#215
1!
1)
1(
b10 $
b0 J
b0 Z
b11 5
b0 4
b0x [
b0x K
#220
0!
0)
0(
#225
1!
1)
1(
b11 $
b0x J
b0x Z
b0 5
b1 4
b10 3
b0 [
b0 K
#230
0!
0)
0(
#235
1!
1)
1(
b10 #
b0 $
b0 J
b0 Z
b1 5
b10 4
b0x [
b0x K
#240
0!
0)
0(
#245
1!
1)
1(
b1 $
b0x J
b0x Z
b10 5
b11 4
b0 [
b0 K
#250
0!
0)
0(
#255
1!
1)
1(
b10 $
b0 J
b0 Z
b11 5
b0 4
b0x [
b0x K
#260
0!
0)
0(
#265
1!
1)
1(
b11 $
b0x J
b0x Z
b0 5
b1 4
b11 3
b0 [
b0 K
#270
0!
0)
0(
#275
1!
1)
1(
b11 #
b0 $
b0 J
b0 Z
b1 5
b10 4
b0x [
b0x K
#280
0!
0)
0(
#285
1!
1)
1(
b1 $
b0x J
b0x Z
b10 5
b11 4
b0 [
b0 K
#290
0!
0)
0(
#295
1!
1)
1(
b10 $
b0 J
b0 Z
b11 5
b0 4
b0x [
b0x K
#300
0!
0)
0(
#305
1!
1)
1(
b11 $
b0x J
b0x Z
b0 5
b1 4
b100 3
b0 [
b0 K
#310
0!
0)
0(
#315
1!
1)
1(
b100 #
b0 $
b0 J
b0 Z
b1 5
b10 4
b0x [
b0x K
#320
0!
0)
0(
#325
1!
1)
1(
b1 $
b0x J
b0x Z
b10 5
b11 4
b0 [
b0 K
#330
0!
0)
0(
#335
1!
1)
1(
b10 $
b0 J
b0 Z
b11 5
b0 4
b0x [
b0x K
#340
0!
0)
0(
#345
1!
1)
1(
b11 $
b0x J
b0x Z
b0 5
b1 4
b101 3
b0 [
b0 K
#350
0!
0)
0(
#355
1!
1)
1(
b101 #
b0 $
b0 J
b0 Z
b1 5
b10 4
b0x [
b0x K
#360
0!
0)
0(
#365
1!
1)
1(
b1 $
b0x J
b0x Z
b10 5
b11 4
b0 [
b0 K
#370
0!
0)
0(
#375
1!
1)
1(
b10 $
b0 J
b0 Z
b11 5
b0 4
b0x [
b0x K
#380
0!
0)
0(
#385
1!
1)
1(
b11 $
b0x J
b0x Z
b0 5
b1 4
b110 3
b0 [
b0 K
#390
0!
0)
0(
#395
1!
1)
1(
b110 #
b0 $
b0 J
b0 Z
b1 5
b10 4
b0x [
b0x K
#400
0!
0)
0(
#405
1!
1)
1(
b1 $
b0x J
b0x Z
b10 5
b11 4
b0 [
b0 K
#410
0!
0)
0(
#415
1!
1)
1(
b10 $
b0 J
b0 Z
b11 5
b0 4
b0x [
b0x K
#420
0!
0)
0(
#425
1!
1)
1(
b11 $
b0x J
b0x Z
b0 5
b1 4
b111 3
b0 [
b0 K
#430
0!
0)
0(
#435
1!
1)
1(
b111 #
b0 $
b0 J
b0 Z
b1 5
b10 4
b0x [
b0x K
#440
0!
0)
0(
#445
1!
1)
1(
b1 $
b0x J
b0x Z
b10 5
b11 4
b0 [
b0 K
#450
0!
0)
0(
#455
1!
1)
1(
b10 $
b0 J
b0 Z
b11 5
b0 4
b0x [
b0x K
#460
0!
0)
0(
#465
1!
1)
1(
b11 $
b0x J
b0x Z
b0 5
b1 4
b1000 3
b0 [
b0 K
#470
0!
0)
0(
#475
1!
1)
1(
b1000 #
b0 $
b0 J
b0 Z
b1 5
b10 4
b0x [
b0x K
#480
0!
0)
0(
#485
1!
1)
1(
b1 $
b0x J
b0x Z
b10 5
b11 4
b0 [
b0 K
#490
0!
0)
0(
#495
1!
1)
1(
b10 $
b0 J
b0 Z
b11 5
b0 4
b0x [
b0x K
#500
0!
0)
0(
#505
1!
1)
1(
b11 $
b0x J
b0x Z
b0 5
b1 4
b1001 3
b0 [
b0 K
#510
0!
0)
0(
#515
1!
1)
1(
b1001 #
b0 $
b0 J
b0 Z
b1 5
b10 4
b0x [
b0x K
#520
0!
0)
0(
#525
1!
1)
1(
b1 $
b0x J
b0x Z
b10 5
b11 4
b0 [
b0 K
#530
0!
0)
0(
#535
1!
1)
1(
b10 $
b0 J
b0 Z
b11 5
b0 4
b0x [
b0x K
#540
0!
0)
0(
#545
1!
1)
1(
b11 $
b0x J
b0x Z
b0 5
b1 4
b1010 3
b0 [
b0 K
#550
0!
0)
0(
#555
1!
1)
1(
b1010 #
b0 $
b0 J
b0 Z
b1 5
b10 4
b0x [
b0x K
#560
0!
0)
0(
#565
1!
1)
1(
b1 $
b0x J
b0x Z
b10 5
b11 4
b0 [
b0 K
#570
0!
0)
0(
#575
1!
1)
1(
b10 $
b0 J
b0 Z
b11 5
b0 4
b0x [
b0x K
#580
0!
0)
0(
#585
1!
1)
1(
b11 $
b0x J
b0x Z
b0 5
b1 4
b1011 3
b0 [
b0 K
#590
0!
0)
0(
#595
1!
1)
1(
b1011 #
b0 $
b0 J
b0 Z
b1 5
b10 4
b0x [
b0x K
#600
0!
0)
0(
#605
1!
1)
1(
b1 $
b0x J
b0x Z
b10 5
b11 4
b0 [
b0 K
#610
0!
0)
0(
#615
1!
1)
1(
b10 $
b0 J
b0 Z
b11 5
b0 4
b0x [
b0x K
#620
0!
0)
0(
#625
1!
1)
1(
b11 $
b0x J
b0x Z
b0 5
b1 4
b1100 3
b0 [
b0 K
#630
0!
0)
0(
#635
1!
1)
1(
b1100 #
b0 $
b0 J
b0 Z
b1 5
b10 4
b0x [
b0x K
#640
0!
0)
0(
#645
1!
1)
1(
b1 $
b0x J
b0x Z
b10 5
b11 4
b0 [
b0 K
#650
0!
0)
0(
#655
1!
1)
1(
b10 $
b0 J
b0 Z
b11 5
b0 4
b0x [
b0x K
#660
0!
0)
0(
#665
1!
1)
1(
b11 $
b0x J
b0x Z
b0 5
b1 4
b1101 3
b0 [
b0 K
#670
0!
0)
0(
#675
1!
1)
1(
b1101 #
b0 $
b0 J
b0 Z
b1 5
b10 4
b0x [
b0x K
#680
0!
0)
0(
#685
1!
1)
1(
b1 $
b0x J
b0x Z
b10 5
b11 4
b0 [
b0 K
#690
0!
0)
0(
#695
1!
1)
1(
b10 $
b0 J
b0 Z
b11 5
b0 4
b0x [
b0x K
#700
0!
0)
0(
#705
1!
1)
1(
b11 $
b0x J
b0x Z
b0 5
b1 4
b1110 3
b0 [
b0 K
#710
0!
0)
0(
#715
1!
1)
1(
b1110 #
b0 $
b0 J
b0 Z
b1 5
b10 4
b0x [
b0x K
#720
0!
0)
0(
#725
1!
1)
1(
b1 $
b0x J
b0x Z
b10 5
b11 4
b0 [
b0 K
#730
0!
0)
0(
#735
1!
1)
1(
b10 $
b0 J
b0 Z
b11 5
b0 4
b0x [
b0x K
#740
0!
0)
0(
#745
1!
1)
1(
b11 $
b0x J
b0x Z
b0 5
b1 4
b1111 3
b0 [
b0 K
#750
0!
0)
0(
#755
1!
1)
1(
b1111 #
b0 $
b0 J
b0 Z
b1 5
b10 4
b0x [
b0x K
#760
0!
0)
0(
#765
1!
1)
1(
b1 $
b0x J
b0x Z
b10 5
b11 4
b0 [
b0 K
#770
0!
0)
0(
#775
1!
1)
1(
b10 $
b0 J
b0 Z
b11 5
b0 4
b0x [
b0x K
#780
0!
0)
0(
#785
1!
1)
1(
b11 $
b0x J
b0x Z
b0 5
b1 4
b10000 3
b0 [
b0 K
#790
0!
0)
0(
#795
1!
1)
1(
b10000 #
b0 $
b0 J
b0 Z
b1 5
b10 4
b0x [
b0x K
#800
0!
0)
0(
#805
1!
1)
1(
b1 $
b0x J
b0x Z
b10 5
b11 4
b0 [
b0 K
#810
0!
0)
0(
#815
1!
1)
1(
b10 $
b0 J
b0 Z
b11 5
b0 4
b0x [
b0x K
#820
0!
0)
0(
#825
1!
1)
1(
b11 $
b0x J
b0x Z
b0 5
b1 4
b10001 3
b0 [
b0 K
#830
0!
0)
0(
#835
1!
1)
1(
b10001 #
b0 $
b0 J
b0 Z
b1 5
b10 4
b0x [
b0x K
#840
0!
0)
0(
#845
1!
1)
1(
b1 $
b0x J
b0x Z
b10 5
b11 4
b0 [
b0 K
#850
0!
0)
0(
#855
1!
1)
1(
b10 $
b0 J
b0 Z
b11 5
b0 4
b0x [
b0x K
#860
0!
0)
0(
#865
1!
1)
1(
b11 $
b0x J
b0x Z
b0 5
b1 4
b10010 3
b0 [
b0 K
#870
0!
0)
0(
#875
1!
1)
1(
b10010 #
b0 $
b0 J
b0 Z
b1 5
b10 4
b0x [
b0x K
#880
0!
0)
0(
#885
1!
1)
1(
b1 $
b0x J
b0x Z
b10 5
b11 4
b0 [
b0 K
#890
0!
0)
0(
#895
1!
1)
1(
b10 $
b0 J
b0 Z
b11 5
b0 4
b0x [
b0x K
#900
0!
0)
0(
#905
1!
1)
1(
b11 $
b0x J
b0x Z
b0 5
b1 4
b10011 3
b0 [
b0 K
#910
0!
0)
0(
#915
1!
1)
1(
b10011 #
b0 $
b0 J
b0 Z
b1 5
b10 4
b0x [
b0x K
#920
0!
0)
0(
#925
1!
1)
1(
b1 $
b0x J
b0x Z
b10 5
b11 4
b0 [
b0 K
#930
0!
0)
0(
#935
1!
1)
1(
b10 $
b0 J
b0 Z
b11 5
b0 4
b0x [
b0x K
#940
0!
0)
0(
#945
1!
1)
1(
b11 $
b0x J
b0x Z
b0 5
b1 4
b10100 3
b0 [
b0 K
#950
0!
0)
0(
#955
1!
1)
1(
b10100 #
b0 $
b0 J
b0 Z
b1 5
b10 4
b0x [
b0x K
#960
0!
0)
0(
#965
1!
1)
1(
b1 $
b0x J
b0x Z
b10 5
b11 4
b0 [
b0 K
#970
0!
0)
0(
#975
1!
1)
1(
b10 $
b0 J
b0 Z
b11 5
b0 4
b0x [
b0x K
#980
0!
0)
0(
#985
1!
1)
1(
b11 $
b0x J
b0x Z
b0 5
b1 4
b10101 3
b0 [
b0 K
#990
0!
0)
0(
#995
1!
1)
1(
b10101 #
b0 $
b0 J
b0 Z
b1 5
b10 4
b0x [
b0x K
#1000
0!
0)
0(
#1005
1!
1)
1(
b1 $
b0x J
b0x Z
b10 5
b11 4
b0 [
b0 K
#1010
0!
0)
0(
#1015
1!
1)
1(
b10 $
b0 J
b0 Z
b11 5
b0 4
b0x [
b0x K
#1020
0!
0)
0(
#1025
1!
1)
1(
b11 $
b0x J
b0x Z
b0 5
b1 4
b10110 3
b0 [
b0 K
#1030
0!
0)
0(
#1035
1!
1)
1(
b10110 #
b0 $
b0 J
b0 Z
b1 5
b10 4
b0x [
b0x K
#1040
0!
0)
0(
#1045
1!
1)
1(
b1 $
b0x J
b0x Z
b10 5
b11 4
b0 [
b0 K
#1050
0!
0)
0(
#1055
1!
1)
1(
b10 $
b0 J
b0 Z
b11 5
b0 4
b0x [
b0x K
#1060
0!
0)
0(
#1065
1!
1)
1(
b11 $
b0x J
b0x Z
b0 5
b1 4
b10111 3
b0 [
b0 K
#1070
0!
0)
0(
#1075
1!
1)
1(
b10111 #
b0 $
b0 J
b0 Z
b1 5
b10 4
b0x [
b0x K
#1080
0!
0)
0(
#1085
1!
1)
1(
b1 $
b0x J
b0x Z
b10 5
b11 4
b0 [
b0 K
#1090
0!
0)
0(
#1095
1!
1)
1(
b10 $
b0 J
b0 Z
b11 5
b0 4
b0x [
b0x K
#1100
0!
0)
0(
#1105
1!
1)
1(
b11 $
b0x J
b0x Z
b0 5
b1 4
b11000 3
b0 [
b0 K
#1110
0!
0)
0(
#1115
1!
1)
1(
b11000 #
b0 $
b0 J
b0 Z
b1 5
b10 4
b0x [
b0x K
#1120
0!
0)
0(
#1125
1!
1)
1(
b1 $
b0x J
b0x Z
b10 5
b11 4
b0 [
b0 K
#1130
0!
0)
0(
#1135
1!
1)
1(
b10 $
b0 J
b0 Z
b11 5
b0 4
b0x [
b0x K
#1140
0!
0)
0(
#1145
1!
1)
1(
b11 $
b0x J
b0x Z
b0 5
b1 4
b11001 3
b0 [
b0 K
#1150
0!
0)
0(
#1155
1!
1)
1(
b11001 #
b0 $
b0 J
b0 Z
b1 5
b10 4
b0x [
b0x K
#1160
0!
0)
0(
#1165
1!
1)
1(
b1 $
b0x J
b0x Z
b10 5
b11 4
b0 [
b0 K
#1170
0!
0)
0(
#1175
1!
1)
1(
b10 $
b0 J
b0 Z
b11 5
b0 4
b0x [
b0x K
#1180
0!
0)
0(
#1185
1!
1)
1(
b11 $
b0x J
b0x Z
b0 5
b1 4
b11010 3
b0 [
b0 K
#1190
0!
0)
0(
#1195
1!
1)
1(
b11010 #
b0 $
b0 J
b0 Z
b1 5
b10 4
b0x [
b0x K
#1200
0!
0)
0(
#1205
1!
1)
1(
b1 $
b0x J
b0x Z
b10 5
b11 4
b0 [
b0 K
#1210
0!
0)
0(
#1215
1!
1)
1(
b10 $
b0 J
b0 Z
b11 5
b0 4
b0x [
b0x K
#1220
0!
0)
0(
#1225
1!
1)
1(
b11 $
b0x J
b0x Z
b0 5
b1 4
b11011 3
b0 [
b0 K
#1230
0!
0)
0(
#1235
1!
1)
1(
b11011 #
b0 $
b0 J
b0 Z
b1 5
b10 4
b0x [
b0x K
#1240
0!
0)
0(
#1245
1!
1)
1(
b1 $
b0x J
b0x Z
b10 5
b11 4
b0 [
b0 K
#1250
0!
0)
0(
#1255
1!
1)
1(
b10 $
b0 J
b0 Z
b11 5
b0 4
b0x [
b0x K
#1260
0!
0)
0(
#1265
1!
1)
1(
b11 $
b0x J
b0x Z
b0 5
b1 4
b11100 3
b0 [
b0 K
#1270
0!
0)
0(
#1275
1!
1)
1(
b11100 #
b0 $
b0 J
b0 Z
b1 5
b10 4
b0x [
b0x K
#1280
0!
0)
0(
#1285
1!
1)
1(
b1 $
b0x J
b0x Z
b10 5
b11 4
b0 [
b0 K
#1290
0!
0)
0(
#1295
1!
1)
1(
b10 $
b0 J
b0 Z
b11 5
b0 4
b0x [
b0x K
#1300
0!
0)
0(
#1305
1!
1)
1(
b11 $
b0x J
b0x Z
b0 5
b1 4
b11101 3
b0 [
b0 K
#1310
0!
0)
0(
#1315
1!
1)
1(
b11101 #
b0 $
b0 J
b0 Z
b1 5
b10 4
b0x [
b0x K
#1320
0!
0)
0(
#1325
1!
1)
1(
b1 $
b0x J
b0x Z
b10 5
b11 4
b0 [
b0 K
#1330
0!
0)
0(
#1335
1!
1)
1(
b10 $
b0 J
b0 Z
b11 5
b0 4
b0x [
b0x K
#1340
0!
0)
0(
#1345
1!
1)
1(
b11 $
b0x J
b0x Z
b0 5
b1 4
b11110 3
b0 [
b0 K
#1350
0!
0)
0(
#1355
1!
1)
1(
b11110 #
b0 $
b0 J
b0 Z
b1 5
b10 4
b0x [
b0x K
#1360
0!
0)
0(
#1365
1!
1)
1(
b1 $
b0x J
b0x Z
b10 5
b11 4
b0 [
b0 K
#1370
0!
0)
0(
#1375
1!
1)
1(
b10 $
b0 J
b0 Z
b11 5
b0 4
b0x [
b0x K
#1380
0!
0)
0(
#1385
1!
1)
1(
b11 $
b0x J
b0x Z
b0 5
b1 4
b11111 3
b0 [
b0 K
#1390
0!
0)
0(
#1395
1!
1)
1(
b11111 #
b0 $
b0 J
b0 Z
b1 5
b10 4
b0x [
b0x K
#1400
0!
0)
0(
#1405
1!
1)
1(
b1 $
b0x J
b0x Z
b10 5
b11 4
b0 [
b0 K
#1410
0!
0)
0(
#1415
1!
1)
1(
b10 $
b0 J
b0 Z
b11 5
b0 4
b0x [
b0x K
#1420
0!
0)
0(
#1425
1!
1)
1(
b11 $
b0x J
b0x Z
b0 5
b1 4
b100000 3
b0 [
b0 K
#1430
0!
0)
0(
#1435
1!
1)
1(
b100000 #
b0 $
b0 J
b0 Z
b1 5
b10 4
b0x [
b0x K
#1440
0!
0)
0(
#1445
1!
1)
1(
b1 $
b0x J
b0x Z
b10 5
b11 4
b0 [
b0 K
#1450
0!
0)
0(
#1455
1!
1)
1(
b10 $
b0 J
b0 Z
b11 5
b0 4
b0x [
b0x K
#1460
0!
0)
0(
#1465
1!
1)
1(
b11 $
b0x J
b0x Z
b0 5
b1 4
b100001 3
b0 [
b0 K
#1470
0!
0)
0(
#1475
1!
1)
1(
b100001 #
b0 $
b0 J
b0 Z
b1 5
b10 4
b0x [
b0x K
#1480
0!
0)
0(
#1485
1!
1)
1(
b1 $
b0x J
b0x Z
b10 5
b11 4
b0 [
b0 K
#1490
0!
0)
0(
#1495
1!
1)
1(
b10 $
b0 J
b0 Z
b11 5
b0 4
b0x [
b0x K
#1500
0!
0)
0(
#1505
1!
1)
1(
b11 $
b0x J
b0x Z
b0 5
b1 4
b100010 3
b0 [
b0 K
#1510
0!
0)
0(
#1515
1!
1)
1(
b100010 #
b0 $
b0 J
b0 Z
b1 5
b10 4
b0x [
b0x K
#1520
0!
0)
0(
#1525
1!
1)
1(
b1 $
b0x J
b0x Z
b10 5
b11 4
b0 [
b0 K
#1530
0!
0)
0(
#1535
1!
1)
1(
b10 $
b0 J
b0 Z
b11 5
b0 4
b0x [
b0x K
#1540
0!
0)
0(
#1545
1!
1)
1(
b11 $
b0x J
b0x Z
b0 5
b1 4
b100011 3
b0 [
b0 K
#1550
0!
0)
0(
#1555
1!
1)
1(
b100011 #
b0 $
b0 J
b0 Z
b1 5
b10 4
b0x [
b0x K
#1560
0!
0)
0(
#1565
1!
1)
1(
b1 $
b0x J
b0x Z
b10 5
b11 4
b0 [
b0 K
#1570
0!
0)
0(
#1575
1!
1)
1(
b10 $
b0 J
b0 Z
b11 5
b0 4
b0x [
b0x K
#1580
0!
0)
0(
#1585
1!
1)
1(
b11 $
b0x J
b0x Z
b0 5
b1 4
b100100 3
b0 [
b0 K
#1590
0!
0)
0(
#1595
1!
1)
1(
b100100 #
b0 $
b0 J
b0 Z
b1 5
b10 4
b0x [
b0x K
#1600
0!
0)
0(
#1605
1!
1)
1(
b1 $
b0x J
b0x Z
b10 5
b11 4
b0 [
b0 K
#1610
0!
0)
0(
#1615
1!
1)
1(
b10 $
b0 J
b0 Z
b11 5
b0 4
b0x [
b0x K
#1620
0!
0)
0(
#1625
1!
1)
1(
b11 $
b0x J
b0x Z
b0 5
b1 4
b100101 3
b0 [
b0 K
#1630
0!
0)
0(
#1635
1!
1)
1(
b100101 #
b0 $
b0 J
b0 Z
b1 5
b10 4
b0x [
b0x K
#1640
0!
0)
0(
#1645
1!
1)
1(
b1 $
b0x J
b0x Z
b10 5
b11 4
b0 [
b0 K
#1650
0!
0)
0(
#1655
1!
1)
1(
b10 $
b0 J
b0 Z
b11 5
b0 4
b0x [
b0x K
#1660
0!
0)
0(
#1665
1!
1)
1(
b11 $
b0x J
b0x Z
b0 5
b1 4
b100110 3
b0 [
b0 K
#1670
0!
0)
0(
#1675
1!
1)
1(
b100110 #
b0 $
b0 J
b0 Z
b1 5
b10 4
b0x [
b0x K
#1680
0!
0)
0(
#1685
1!
1)
1(
b1 $
b0x J
b0x Z
b10 5
b11 4
b0 [
b0 K
#1690
0!
0)
0(
#1695
1!
1)
1(
b10 $
b0 J
b0 Z
b11 5
b0 4
b0x [
b0x K
#1700
0!
0)
0(
#1705
1!
1)
1(
b11 $
b0x J
b0x Z
b0 5
b1 4
b100111 3
b0 [
b0 K
#1710
0!
0)
0(
#1715
1!
1)
1(
b100111 #
b0 $
b0 J
b0 Z
b1 5
b10 4
b0x [
b0x K
#1720
0!
0)
0(
#1725
1!
1)
1(
b1 $
b0x J
b0x Z
b10 5
b11 4
b0 [
b0 K
#1730
0!
0)
0(
#1735
1!
1)
1(
b10 $
b0 J
b0 Z
b11 5
b0 4
b0x [
b0x K
#1740
0!
0)
0(
#1745
1!
1)
1(
b11 $
b0x J
b0x Z
b0 5
b1 4
b101000 3
b0 [
b0 K
#1750
0!
0)
0(
#1755
1!
1)
1(
b101000 #
b0 $
b0 J
b0 Z
b1 5
b10 4
b0x [
b0x K
#1760
0!
0)
0(
#1765
1!
1)
1(
b1 $
b0x J
b0x Z
b10 5
b11 4
b0 [
b0 K
#1770
0!
0)
0(
#1775
1!
1)
1(
b10 $
b0 J
b0 Z
b11 5
b0 4
b0x [
b0x K
#1780
0!
0)
0(
#1785
1!
1)
1(
b11 $
b0x J
b0x Z
b0 5
b1 4
b101001 3
b0 [
b0 K
#1790
0!
0)
0(
#1795
1!
1)
1(
b101001 #
b0 $
b0 J
b0 Z
b1 5
b10 4
b0x [
b0x K
#1800
0!
0)
0(
#1805
1!
1)
1(
b1 $
b0x J
b0x Z
b10 5
b11 4
b0 [
b0 K
#1810
0!
0)
0(
#1815
1!
1)
1(
b10 $
b0 J
b0 Z
b11 5
b0 4
b0x [
b0x K
#1820
0!
0)
0(
#1825
1!
1)
1(
b11 $
b0x J
b0x Z
b0 5
b1 4
b101010 3
b0 [
b0 K
#1830
0!
0)
0(
#1835
1!
1)
1(
b101010 #
b0 $
b0 J
b0 Z
b1 5
b10 4
b0x [
b0x K
#1840
0!
0)
0(
#1845
1!
1)
1(
b1 $
b0x J
b0x Z
b10 5
b11 4
b0 [
b0 K
#1850
0!
0)
0(
#1855
1!
1)
1(
b10 $
b0 J
b0 Z
b11 5
b0 4
b0x [
b0x K
#1860
0!
0)
0(
#1865
1!
1)
1(
b11 $
b0x J
b0x Z
b0 5
b1 4
b101011 3
b0 [
b0 K
#1870
0!
0)
0(
#1875
1!
1)
1(
b101011 #
b0 $
b0 J
b0 Z
b1 5
b10 4
b0x [
b0x K
#1880
0!
0)
0(
#1885
1!
1)
1(
b1 $
b0x J
b0x Z
b10 5
b11 4
b0 [
b0 K
#1890
0!
0)
0(
#1895
1!
1)
1(
b10 $
b0 J
b0 Z
b11 5
b0 4
b0x [
b0x K
#1900
0!
0)
0(
#1905
1!
1)
1(
b11 $
b0x J
b0x Z
b0 5
b1 4
b101100 3
b0 [
b0 K
#1910
0!
0)
0(
#1915
1!
1)
1(
b101100 #
b0 $
b0 J
b0 Z
b1 5
b10 4
b0x [
b0x K
#1920
0!
0)
0(
#1925
1!
1)
1(
b1 $
b0x J
b0x Z
b10 5
b11 4
b0 [
b0 K
#1930
0!
0)
0(
#1935
1!
1)
1(
b10 $
b0 J
b0 Z
b11 5
b0 4
b0x [
b0x K
#1940
0!
0)
0(
#1945
1!
1)
1(
b11 $
b0x J
b0x Z
b0 5
b1 4
b101101 3
b0 [
b0 K
#1950
0!
0)
0(
#1955
1!
1)
1(
b101101 #
b0 $
b0 J
b0 Z
b1 5
b10 4
b0x [
b0x K
#1960
0!
0)
0(
#1965
1!
1)
1(
b1 $
b0x J
b0x Z
b10 5
b11 4
b0 [
b0 K
#1970
0!
0)
0(
#1975
1!
1)
1(
b10 $
b0 J
b0 Z
b11 5
b0 4
b0x [
b0x K
#1980
0!
0)
0(
#1985
1!
1)
1(
b11 $
b0x J
b0x Z
b0 5
b1 4
b101110 3
b0 [
b0 K
#1990
0!
0)
0(
#1995
1!
1)
1(
b101110 #
b0 $
b0 J
b0 Z
b1 5
b10 4
b0x [
b0x K
#2000
0!
0)
0(
#2005
1!
1)
1(
b1 $
b0x J
b0x Z
b10 5
b11 4
b0 [
b0 K
#2010
0!
0)
0(
#2015
1!
1)
1(
b10 $
b0 J
b0 Z
b11 5
b0 4
b0x [
b0x K
#2020
0!
0)
0(
#2025
1!
1)
1(
b11 $
b0x J
b0x Z
b0 5
b1 4
b101111 3
b0 [
b0 K
#2030
0!
0)
0(
#2035
1!
1)
1(
b101111 #
b0 $
b0 J
b0 Z
b1 5
b10 4
b0x [
b0x K
#2040
0!
0)
0(
#2045
1!
1)
1(
b1 $
b0x J
b0x Z
b10 5
b11 4
b0 [
b0 K
#2050
0!
0)
0(
#2055
1!
1)
1(
b10 $
b0 J
b0 Z
b11 5
b0 4
b0x [
b0x K
#2060
0!
0)
0(
#2065
1!
1)
1(
b11 $
b0x J
b0x Z
b0 5
b1 4
b110000 3
b0 [
b0 K
#2070
0!
0)
0(
#2075
1!
1)
1(
b110000 #
b0 $
b0 J
b0 Z
b1 5
b10 4
b0x [
b0x K
#2080
0!
0)
0(
#2085
1!
1)
1(
b1 $
b0x J
b0x Z
b10 5
b11 4
b0 [
b0 K
#2090
0!
0)
0(
#2095
1!
1)
1(
b10 $
b0 J
b0 Z
b11 5
b0 4
b0x [
b0x K
#2100
0!
0)
0(
